	 {0x000,0x000,0x000,0x000,0x000,0x000,0x000,0x000,0x000,0x000,0x000,0x000,0x000,0x000,0x000,0x000},	//  
	 {0x060,0x060,0x0F0,0x0F0,0x0F0,0x0F0,0x0F0,0x060,0x060,0x060,0x000,0x000,0x060,0x060,0x000,0x000},	// !
	 {0x000,0x000,0x198,0x198,0x198,0x198,0x000,0x000,0x000,0x000,0x000,0x000,0x000,0x000,0x000,0x000},	// "
	 {0x000,0x066,0x066,0x066,0x3FF,0x0CC,0x0CC,0x198,0x198,0x7FC,0x330,0x330,0x330,0x000,0x000,0x000},	// #
	 {0x060,0x060,0x1F8,0x3FC,0x360,0x360,0x3F8,0x1FC,0x06C,0x06C,0x3FC,0x1F8,0x060,0x060,0x000,0x000},	// $
	 {0x000,0x000,0x001,0x383,0x387,0x38E,0x01C,0x038,0x070,0x0E0,0x1C0,0x38E,0x70E,0x60E,0x000,0x000},	// %
	 {0x000,0x070,0x0D8,0x198,0x198,0x1B0,0x0E0,0x1E0,0x3E0,0x336,0x33C,0x318,0x3BC,0x1E6,0x000,0x000},	// &
	 {0x0E0,0x0E0,0x0E0,0x060,0x060,0x0C0,0x000,0x000,0x000,0x000,0x000,0x000,0x000,0x000,0x000,0x000},	// '
	 {0x038,0x060,0x0E0,0x0C0,0x1C0,0x1C0,0x1C0,0x1C0,0x1C0,0x1C0,0x0C0,0x0E0,0x060,0x038,0x000,0x000},	// (
	 {0x1C0,0x060,0x070,0x030,0x038,0x038,0x038,0x038,0x038,0x038,0x030,0x070,0x060,0x1C0,0x000,0x000},	// )
	 {0x000,0x000,0x000,0x36C,0x36C,0x1F8,0x0F0,0x3FC,0x0F0,0x1F8,0x36C,0x36C,0x000,0x000,0x000,0x000},	// *
	 {0x000,0x000,0x000,0x000,0x060,0x060,0x060,0x3FC,0x3FC,0x060,0x060,0x060,0x000,0x000,0x000,0x000},	// +
	 {0x000,0x000,0x000,0x000,0x000,0x000,0x000,0x000,0x000,0x000,0x000,0x0E0,0x0E0,0x0E0,0x060,0x0C0},	// ,
	 {0x000,0x000,0x000,0x000,0x000,0x000,0x000,0x3FC,0x3FC,0x000,0x000,0x000,0x000,0x000,0x000,0x000},	// -
	 {0x000,0x000,0x000,0x000,0x000,0x000,0x000,0x000,0x000,0x000,0x000,0x0E0,0x0E0,0x0E0,0x000,0x000},	// .
	 {0x000,0x001,0x003,0x007,0x00E,0x01C,0x038,0x070,0x0E0,0x1C0,0x380,0x700,0x600,0x000,0x000,0x000},	// /
	 {0x0F8,0x3FE,0x306,0x607,0x60F,0x61B,0x633,0x663,0x6C3,0x783,0x703,0x306,0x3FE,0x0F8,0x000,0x000},	// 0
	 {0x030,0x070,0x1F0,0x1F0,0x030,0x030,0x030,0x030,0x030,0x030,0x030,0x030,0x1FE,0x1FE,0x000,0x000},	// 1
	 {0x1FC,0x3FE,0x707,0x603,0x607,0x00E,0x01C,0x038,0x070,0x0E0,0x1C0,0x380,0x7FF,0x7FF,0x000,0x000},	// 2
	 {0x1FC,0x3FE,0x707,0x603,0x003,0x007,0x0FE,0x0FC,0x006,0x003,0x603,0x707,0x3FE,0x1FC,0x000,0x000},	// 3
	 {0x01C,0x03C,0x07C,0x0EC,0x1CC,0x38C,0x70C,0x60C,0x7FF,0x7FF,0x00C,0x00C,0x00C,0x00C,0x000,0x000},	// 4
	 {0x7FF,0x7FF,0x600,0x600,0x600,0x7FC,0x3FE,0x007,0x003,0x003,0x603,0x707,0x3FE,0x1FC,0x000,0x000},	// 5
	 {0x03C,0x07C,0x0E0,0x1C0,0x380,0x300,0x7FC,0x7FE,0x707,0x603,0x603,0x707,0x3FE,0x1FC,0x000,0x000},	// 6
	 {0x7FF,0x7FF,0x006,0x006,0x00C,0x00C,0x018,0x018,0x030,0x030,0x060,0x060,0x0C0,0x0C0,0x000,0x000},	// 7
	 {0x0F8,0x1FC,0x38E,0x306,0x306,0x38E,0x1FC,0x3FE,0x707,0x603,0x603,0x707,0x3FE,0x1FC,0x000,0x000},	// 8
	 {0x1FC,0x3FE,0x707,0x603,0x603,0x707,0x3FF,0x1FF,0x006,0x00E,0x01C,0x038,0x1F0,0x1E0,0x000,0x000},	// 9
	 {0x000,0x000,0x000,0x000,0x0E0,0x0E0,0x0E0,0x000,0x000,0x000,0x0E0,0x0E0,0x0E0,0x000,0x000,0x000},	// :
	 {0x000,0x000,0x000,0x000,0x0E0,0x0E0,0x0E0,0x000,0x000,0x000,0x0E0,0x0E0,0x0E0,0x060,0x060,0x0C0},	// //
	 {0x00C,0x01C,0x038,0x070,0x0E0,0x1C0,0x380,0x380,0x1C0,0x0E0,0x070,0x038,0x01C,0x00C,0x000,0x000},	// <
	 {0x000,0x000,0x000,0x000,0x000,0x3FE,0x3FE,0x000,0x000,0x3FE,0x3FE,0x000,0x000,0x000,0x000,0x000},	// =
	 {0x300,0x380,0x1C0,0x0E0,0x070,0x038,0x01C,0x01C,0x038,0x070,0x0E0,0x1C0,0x380,0x300,0x000,0x000},	// >
	 {0x1F8,0x3FC,0x70E,0x606,0x60E,0x01C,0x038,0x070,0x060,0x060,0x060,0x000,0x060,0x060,0x000,0x000},	// ?
	 {0x1FC,0x3FE,0x306,0x67B,0x6FB,0x6DB,0x6DB,0x6DB,0x6DB,0x6FE,0x67C,0x700,0x3FC,0x0FC,0x000,0x000},	// @
	 {0x060,0x060,0x0F0,0x0F0,0x0F0,0x198,0x198,0x198,0x30C,0x3FC,0x3FC,0x606,0x606,0x606,0x000,0x000},	// A
	 {0x7F0,0x7F8,0x61C,0x60C,0x60C,0x61C,0x7F8,0x7FC,0x60E,0x606,0x606,0x60E,0x7FC,0x7F8,0x000,0x000},	// B
	 {0x0F8,0x1FC,0x38E,0x306,0x600,0x600,0x600,0x600,0x600,0x600,0x306,0x38E,0x1FC,0x0F8,0x000,0x000},	// C
	 {0x7F0,0x7F8,0x61C,0x60C,0x606,0x606,0x606,0x606,0x606,0x606,0x60C,0x61C,0x7F8,0x7F0,0x000,0x000},	// D
	 {0x7FE,0x7FE,0x600,0x600,0x600,0x600,0x7F8,0x7F8,0x600,0x600,0x600,0x600,0x7FE,0x7FE,0x000,0x000},	// E
	 {0x7FE,0x7FE,0x600,0x600,0x600,0x600,0x7F8,0x7F8,0x600,0x600,0x600,0x600,0x600,0x600,0x000,0x000},	// F
	 {0x0FC,0x1FE,0x386,0x300,0x600,0x600,0x63E,0x63E,0x606,0x606,0x306,0x386,0x1FE,0x0FE,0x000,0x000},	// G
	 {0x606,0x606,0x606,0x606,0x606,0x606,0x7FE,0x7FE,0x606,0x606,0x606,0x606,0x606,0x606,0x000,0x000},	// H
	 {0x1F8,0x1F8,0x060,0x060,0x060,0x060,0x060,0x060,0x060,0x060,0x060,0x060,0x1F8,0x1F8,0x000,0x000},	// I
	 {0x006,0x006,0x006,0x006,0x006,0x006,0x006,0x006,0x006,0x606,0x606,0x70C,0x3FC,0x1F8,0x000,0x000},	// J
	 {0x606,0x60E,0x61C,0x638,0x670,0x6E0,0x7C0,0x7C0,0x6E0,0x670,0x638,0x61C,0x60E,0x606,0x000,0x000},	// K
	 {0x600,0x600,0x600,0x600,0x600,0x600,0x600,0x600,0x600,0x600,0x600,0x600,0x7FE,0x7FE,0x000,0x000},	// L
	 {0x606,0x70E,0x70E,0x79E,0x79E,0x6F6,0x6F6,0x666,0x666,0x606,0x606,0x606,0x606,0x606,0x000,0x000},	// M
	 {0x606,0x706,0x706,0x786,0x6C6,0x6C6,0x666,0x666,0x636,0x636,0x61E,0x60E,0x60E,0x606,0x000,0x000},	// N
	 {0x0F0,0x1F8,0x39C,0x30C,0x606,0x606,0x606,0x606,0x606,0x606,0x30C,0x39C,0x1F8,0x0F0,0x000,0x000},	// O
	 {0x7F8,0x7FC,0x60E,0x606,0x606,0x606,0x60E,0x7FC,0x7F8,0x600,0x600,0x600,0x600,0x600,0x000,0x000},	// P
	 {0x0F0,0x1F8,0x39C,0x30C,0x606,0x606,0x606,0x606,0x606,0x636,0x33C,0x39C,0x1FE,0x0F6,0x000,0x000},	// Q
	 {0x7F8,0x7FC,0x60E,0x606,0x606,0x606,0x60E,0x7FC,0x7F8,0x670,0x638,0x61C,0x60E,0x606,0x000,0x000},	// R
	 {0x1F8,0x3FC,0x70E,0x606,0x600,0x700,0x3F8,0x1FC,0x00E,0x006,0x606,0x70E,0x3FC,0x1F8,0x000,0x000},	// S
	 {0x3FC,0x3FC,0x060,0x060,0x060,0x060,0x060,0x060,0x060,0x060,0x060,0x060,0x060,0x060,0x000,0x000},	// T
	 {0x606,0x606,0x606,0x606,0x606,0x606,0x606,0x606,0x606,0x606,0x606,0x30C,0x3FC,0x1F8,0x000,0x000},	// U
	 {0x606,0x606,0x606,0x30C,0x30C,0x30C,0x198,0x198,0x198,0x0F0,0x0F0,0x0F0,0x060,0x060,0x000,0x000},	// V
	 {0x606,0x606,0x606,0x606,0x606,0x606,0x606,0x666,0x666,0x6F6,0x79E,0x70E,0x70E,0x606,0x000,0x000},	// W
	 {0x606,0x606,0x30C,0x30C,0x198,0x0F0,0x060,0x060,0x0F0,0x198,0x30C,0x30C,0x606,0x606,0x000,0x000},	// X
	 {0x606,0x606,0x30C,0x30C,0x198,0x198,0x0F0,0x0F0,0x060,0x060,0x060,0x060,0x060,0x060,0x000,0x000},	// Y
	 {0x7FE,0x7FE,0x00C,0x00C,0x018,0x030,0x060,0x060,0x0C0,0x180,0x300,0x300,0x7FE,0x7FE,0x000,0x000},	// Z
	 {0x1F8,0x1F8,0x180,0x180,0x180,0x180,0x180,0x180,0x180,0x180,0x180,0x180,0x1F8,0x1F8,0x000,0x000},	// [
	 {0x000,0x400,0x600,0x700,0x380,0x1C0,0x0E0,0x070,0x038,0x01C,0x00E,0x007,0x003,0x000,0x000,0x000},	// \
	 {0x1F8,0x1F8,0x018,0x018,0x018,0x018,0x018,0x018,0x018,0x018,0x018,0x018,0x1F8,0x1F8,0x000,0x000},	// ]
	 {0x020,0x070,0x0F8,0x1DC,0x38E,0x707,0x603,0x000,0x000,0x000,0x000,0x000,0x000,0x000,0x000,0x000},	// ^
	 {0x000,0x000,0x000,0x000,0x000,0x000,0x000,0x000,0x000,0x000,0x000,0x000,0x000,0x000,0x7FF,0x7FF},	// _
	 {0x000,0x070,0x070,0x070,0x060,0x060,0x030,0x000,0x000,0x000,0x000,0x000,0x000,0x000,0x000,0x000},	// `
	 {0x000,0x000,0x000,0x000,0x000,0x1FC,0x3FE,0x006,0x1FE,0x3FE,0x606,0x606,0x7FE,0x3FE,0x000,0x000},	// a
	 {0x600,0x600,0x600,0x600,0x600,0x6F8,0x7FC,0x70E,0x606,0x606,0x606,0x60E,0x7FC,0x7F8,0x000,0x000},	// b
	 {0x000,0x000,0x000,0x000,0x000,0x1F8,0x3FC,0x706,0x600,0x600,0x600,0x706,0x3FC,0x1F8,0x000,0x000},	// c
	 {0x006,0x006,0x006,0x006,0x006,0x1F6,0x3FE,0x71E,0x606,0x606,0x606,0x706,0x3FE,0x1FE,0x000,0x000},	// d
	 {0x000,0x000,0x000,0x000,0x000,0x1F8,0x3FC,0x706,0x7FE,0x7FC,0x600,0x700,0x3FC,0x1F8,0x000,0x000},	// e
	 {0x078,0x0F8,0x1C0,0x180,0x180,0x180,0x7F0,0x7F0,0x180,0x180,0x180,0x180,0x180,0x180,0x000,0x000},	// f
	 {0x000,0x000,0x000,0x000,0x000,0x1FE,0x3FE,0x706,0x606,0x70E,0x3FE,0x1F6,0x006,0x00E,0x3FC,0x3F8},	// g
	 {0x600,0x600,0x600,0x600,0x600,0x6F0,0x7F8,0x71C,0x60C,0x60C,0x60C,0x60C,0x60C,0x60C,0x000,0x000},	// h
	 {0x000,0x000,0x060,0x060,0x000,0x0E0,0x0E0,0x060,0x060,0x060,0x060,0x060,0x1F8,0x1F8,0x000,0x000},	// i
	 {0x000,0x000,0x018,0x018,0x000,0x038,0x038,0x018,0x018,0x018,0x018,0x018,0x018,0x198,0x1F8,0x0F0},	// j
	 {0x300,0x300,0x300,0x300,0x300,0x318,0x338,0x370,0x3E0,0x3E0,0x370,0x338,0x31C,0x30C,0x000,0x000},	// k
	 {0x0E0,0x0E0,0x060,0x060,0x060,0x060,0x060,0x060,0x060,0x060,0x060,0x060,0x1F8,0x1F8,0x000,0x000},	// l
	 {0x000,0x000,0x000,0x000,0x000,0x598,0x7FC,0x7FE,0x666,0x666,0x666,0x666,0x666,0x666,0x000,0x000},	// m
	 {0x000,0x000,0x000,0x000,0x000,0x3F8,0x3FC,0x30E,0x306,0x306,0x306,0x306,0x306,0x306,0x000,0x000},	// n
	 {0x000,0x000,0x000,0x000,0x000,0x1F8,0x3FC,0x70E,0x606,0x606,0x606,0x70E,0x3FC,0x1F8,0x000,0x000},	// o
	 {0x000,0x000,0x000,0x000,0x000,0x7F8,0x7FC,0x60E,0x606,0x606,0x70E,0x7FC,0x6F8,0x600,0x600,0x600},	// p
	 {0x000,0x000,0x000,0x000,0x000,0x1FE,0x3FE,0x706,0x606,0x606,0x70E,0x3FE,0x1F6,0x006,0x006,0x006},	// q
	 {0x000,0x000,0x000,0x000,0x000,0x37C,0x3FE,0x386,0x300,0x300,0x300,0x300,0x300,0x300,0x000,0x000},	// r
	 {0x000,0x000,0x000,0x000,0x000,0x3F0,0x7F8,0x600,0x7F0,0x3F8,0x018,0x018,0x7F8,0x3F0,0x000,0x000},	// s
	 {0x000,0x180,0x180,0x180,0x180,0x7F0,0x7F0,0x180,0x180,0x180,0x180,0x180,0x1F8,0x0F8,0x000,0x000},	// t
	 {0x000,0x000,0x000,0x000,0x000,0x606,0x606,0x606,0x606,0x606,0x606,0x70E,0x3FE,0x1F6,0x000,0x000},	// u
	 {0x000,0x000,0x000,0x000,0x000,0x606,0x606,0x30C,0x30C,0x198,0x198,0x0F0,0x0F0,0x060,0x000,0x000},	// v
	 {0x000,0x000,0x000,0x000,0x000,0x666,0x666,0x666,0x666,0x666,0x6F6,0x3FC,0x39C,0x108,0x000,0x000},	// w
	 {0x000,0x000,0x000,0x000,0x000,0x60C,0x71C,0x3B8,0x1F0,0x0E0,0x1F0,0x3B8,0x71C,0x60C,0x000,0x000},	// x
	 {0x000,0x000,0x000,0x000,0x000,0x30C,0x30C,0x198,0x198,0x0F0,0x0F0,0x060,0x060,0x0C0,0x0C0,0x180},	// y
	 {0x000,0x000,0x000,0x000,0x000,0x7FC,0x7F8,0x030,0x060,0x0C0,0x180,0x300,0x7FC,0x7FC,0x000,0x000},	// z
	 {0x03C,0x07C,0x0E0,0x0C0,0x0C0,0x0C0,0x1C0,0x380,0x1C0,0x0C0,0x0C0,0x0C0,0x0E0,0x07C,0x03C,0x000},	// {
	 {0x060,0x060,0x060,0x060,0x060,0x060,0x060,0x060,0x060,0x060,0x060,0x060,0x060,0x060,0x000,0x000},	// |
	 {0x3C0,0x3E0,0x070,0x030,0x030,0x030,0x038,0x01C,0x038,0x030,0x030,0x030,0x070,0x3E0,0x3C0,0x000},	// },
	 {0x000,0x000,0x1C6,0x36C,0x638,0x000,0x000,0x000,0x000,0x000,0x000,0x000,0x000,0x000,0x000,0x000},	// ~
	 {0x000,0x000,0x000,0x000,0x060,0x0F0,0x198,0x30C,0x606,0x606,0x7FE,0x7FE,0x000,0x000,0x000,0x000},	// 
